…
``` r
flights%>%
  filter(!is.na(arr_time))%>%
  group_by(dest, carrier)%>%
  summarize(num_of_flights = n())%>%
  pivot_wider(names_from = "carrier", values_from = "num_of_flights", values_fill = 0)
```

    ## `summarise()` regrouping output by 'dest' (override with `.groups` argument)

    ## # A tibble: 104 x 17
    ## # Groups:   dest [104]
    ##    dest     B6    EV    UA  `9E`    DL    FL    MQ    WN    AA    US    OO    YV
    ##    <chr> <int> <int> <int> <int> <int> <int> <int> <int> <int> <int> <int> <int>
    ##  1 ABQ     254     0     0     0     0     0     0     0     0     0     0     0
    ##  2 ACK     265     0     0     0     0     0     0     0     0     0     0     0
    ##  3 ALB       0   418     0     0     0     0     0     0     0     0     0     0
    ##  4 ANC       0     0     8     0     0     0     0     0     0     0     0     0
    ##  5 ATL       0  1660   102    56 10476  2284  2237    58     0     0     0     0
    ##  6 AUS     744     0   664     2   353     0     0   295   359     0     0     0
    ##  7 AVL       0   253     0    10     0     0     0     0     0     0     0     0
    ##  8 BDL       0   405     7     0     0     0     0     0     0     0     0     0
    ##  9 BGR       0   358     0     0     0     0     0     0     0     0     0     0
    ## 10 BHM       0   269     0     0     0     0     0     0     0     0     0     0
    ## # ... with 94 more rows, and 4 more variables: F9 <int>, HA <int>, VX <int>,
    ## #   AS <int>
